
Teste 1

Teste 1

Teste 1

Teste 1

Teste 1

Teste 2

Teste 1

Teste 2

Teste 1

Teste 2

Teste 1

Teste 2

Teste 1

Teste 2

Teste 1

Teste 2

Teste 1

Teste 2

Teste 1

Teste 2

Teste 1

Teste 2

Teste 1

Teste 2

Teste 1

Teste 2

Teste 1

Teste 2

Teste 1

Teste 2
